[gd_scene load_steps=5 format=2]

[ext_resource path="res://objects/world_objects/Blob.gd" type="Script" id=1]
[ext_resource path="res://sprites/world_objects/blob.png" type="Texture" id=2]
[ext_resource path="res://sounds/hits/hit_goo.ogg" type="AudioStream" id=3]

[sub_resource type="CircleShape2D" id=1]
radius = 8.0

[node name="Blob" type="Area2D"]
script = ExtResource( 1 )

[node name="Sprite" type="Sprite" parent="."]
texture = ExtResource( 2 )
hframes = 5

[node name="CollisionShape2D" type="CollisionShape2D" parent="."]
shape = SubResource( 1 )

[node name="Audio_Hit" type="AudioStreamPlayer2D" parent="."]
stream = ExtResource( 3 )
volume_db = 8.0
[connection signal="area_entered" from="." to="." method="_on_Blob_area_entered"]
[connection signal="body_entered" from="." to="." method="_on_Blob_body_entered"]
