[gd_scene load_steps=6 format=2]

[ext_resource path="res://objects/world_objects/Clawguy.gd" type="Script" id=1]
[ext_resource path="res://sprites/world_objects/clawguy.png" type="Texture" id=2]
[ext_resource path="res://sounds/hits/hit_flesh.ogg" type="AudioStream" id=3]
[ext_resource path="res://sounds/hits/hit_robot.ogg" type="AudioStream" id=4]

[sub_resource type="CapsuleShape2D" id=1]
radius = 8.0
height = 10.0

[node name="Clawguy" type="Area2D"]
collision_mask = 2
script = ExtResource( 1 )

[node name="Sprite" type="Sprite" parent="."]
position = Vector2( 0, 8 )
texture = ExtResource( 2 )
flip_v = true
hframes = 6

[node name="CollisionShape2D" type="CollisionShape2D" parent="."]
position = Vector2( 0, 8 )
rotation = 1.5708
shape = SubResource( 1 )

[node name="RayCast2D_Turnaround" type="RayCast2D" parent="."]
position = Vector2( 0, 8 )
enabled = true
cast_to = Vector2( 16, 0 )

[node name="RayCast2D_LookBelow" type="RayCast2D" parent="."]
enabled = true
cast_to = Vector2( 0, 128 )
collision_mask = 2

[node name="RayCast2D_Ground" type="RayCast2D" parent="."]
position = Vector2( 0, 16 )
enabled = true
cast_to = Vector2( 0, 2 )

[node name="RayCast2D_Ceiling" type="RayCast2D" parent="."]
position = Vector2( 12, 0 )
enabled = true
cast_to = Vector2( 0, -2 )

[node name="Timer_Twitch" type="Timer" parent="."]

[node name="Audio_Hit" type="AudioStreamPlayer2D" parent="."]
stream = ExtResource( 3 )

[node name="Audio_Step" type="AudioStreamPlayer2D" parent="."]
stream = ExtResource( 4 )
volume_db = -5.0
[connection signal="area_entered" from="." to="." method="_on_Clawguy_area_entered"]
[connection signal="body_entered" from="." to="." method="_on_Clawguy_body_entered"]
[connection signal="timeout" from="Timer_Twitch" to="." method="_on_Timer_Twitch_timeout"]
