[gd_scene load_steps=5 format=2]

[ext_resource path="res://sprites/explosion.png" type="Texture" id=1]
[ext_resource path="res://objects/Explosion.gd" type="Script" id=2]
[ext_resource path="res://sounds/bangs/bang_robot.ogg" type="AudioStream" id=3]
[ext_resource path="res://sounds/bangs/bang_flesh.ogg" type="AudioStream" id=4]

[node name="Explosion" type="Sprite"]
texture = ExtResource( 1 )
hframes = 8
script = ExtResource( 2 )

[node name="Audio_RobotBang" type="AudioStreamPlayer2D" parent="."]
stream = ExtResource( 3 )
volume_db = 8.0

[node name="Audio_FleshBang" type="AudioStreamPlayer2D" parent="."]
stream = ExtResource( 4 )
[connection signal="finished" from="Audio_RobotBang" to="." method="_on_Audio_finished"]
[connection signal="finished" from="Audio_FleshBang" to="." method="_on_Audio_finished"]
