[gd_scene load_steps=13 format=2]

[ext_resource path="res://scripts/Room.gd" type="Script" id=1]
[ext_resource path="res://objects/SpaceBackground.tscn" type="PackedScene" id=2]
[ext_resource path="res://tilesets/block1.tres" type="TileSet" id=3]
[ext_resource path="res://objects/world_objects/Door.tscn" type="PackedScene" id=4]
[ext_resource path="res://objects/world_objects/RoomEntrance.tscn" type="PackedScene" id=5]
[ext_resource path="res://objects/world_objects/RoomExit.tscn" type="PackedScene" id=6]
[ext_resource path="res://objects/world_objects/Clawguy.tscn" type="PackedScene" id=7]
[ext_resource path="res://objects/world_objects/Crawler.tscn" type="PackedScene" id=8]
[ext_resource path="res://objects/world_objects/Drone.tscn" type="PackedScene" id=9]
[ext_resource path="res://objects/world_objects/Savepad.tscn" type="PackedScene" id=10]

[sub_resource type="Shader" id=1]
code = "shader_type canvas_item;

void fragment() {
	vec2 uv = vec2(1.0f-SCREEN_UV.x, 1.0f-SCREEN_UV.y);
	COLOR.rgb = texture(SCREEN_TEXTURE, uv).rgb;
}"

[sub_resource type="ShaderMaterial" id=2]
shader = SubResource( 1 )

[node name="CorridorD" type="Node2D"]
script = ExtResource( 1 )

[node name="SpaceBackground" parent="." instance=ExtResource( 2 )]

[node name="TileMap" type="TileMap" parent="."]
tile_set = ExtResource( 3 )
cell_size = Vector2( 16, 16 )
format = 1
tile_data = PoolIntArray( -1, 0, 0, -65536, 0, 1, -65535, 0, 1, -65534, 0, 1, -65533, 0, 1, -65532, 0, 1, -65531, 0, 1, -65530, 0, 1, -65529, 0, 1, -65528, 0, 1, -65527, 0, 1, -65526, 0, 1, -65525, 0, 1, -65524, 0, 1, -65523, 0, 1, -65522, 0, 1, -65521, 0, 1, -65520, 0, 1, -65519, 0, 1, -65518, 0, 1, -65517, 0, 1, -65516, 0, 1, -65515, 0, 1, -65514, 0, 1, -65513, 0, 1, -65512, 0, 1, -65511, 0, 1, -65510, 0, 1, -65509, 0, 1, -65508, 0, 1, -65507, 0, 1, -65506, 0, 1, -65505, 0, 1, -65504, 0, 1, -65503, 0, 1, -65502, 0, 1, -65501, 0, 1, -65500, 0, 1, -65499, 0, 1, -65498, 0, 1, -65497, 0, 1, -65496, 0, 1, -65495, 0, 1, -65494, 0, 1, -65493, 0, 1, -65492, 0, 1, -65491, 0, 1, -65490, 0, 1, -65489, 0, 1, -65488, 0, 1, -65487, 0, 1, -65486, 0, 1, -65485, 0, 1, -65484, 0, 1, -65483, 0, 1, -65482, 0, 1, -65481, 0, 1, -65480, 0, 1, -65479, 0, 1, -65478, 0, 1, -65477, 0, 1, -65476, 0, 2, 65535, 0, 65536, 0, 0, 65537, 1, 0, 65541, 2, 0, 131073, 3, 0, 131073, 4, 0, 65542, 5, 0, 65537, 6, 0, 65537, 7, 0, 65537, 8, 0, 65537, 9, 0, 65537, 10, 0, 65537, 11, 0, 65537, 12, 0, 65537, 13, 0, 65537, 14, 0, 65537, 15, 0, 65541, 16, 0, 131073, 17, 0, 131073, 18, 0, 131073, 19, 0, 131073, 20, 0, 131073, 21, 0, 131073, 22, 0, 131073, 23, 0, 131073, 24, 0, 65542, 25, 0, 65537, 26, 0, 65537, 27, 0, 65537, 28, 0, 65537, 29, 0, 65537, 30, 0, 65537, 31, 0, 65537, 32, 0, 65537, 33, 0, 65537, 34, 0, 65537, 35, 0, 65541, 36, 0, 131073, 37, 0, 131073, 38, 0, 131073, 39, 0, 131073, 40, 0, 131073, 41, 0, 131073, 42, 0, 131073, 43, 0, 131073, 44, 0, 65542, 45, 0, 65537, 46, 0, 65537, 47, 0, 65537, 48, 0, 65537, 49, 0, 65537, 50, 0, 65537, 51, 0, 65537, 52, 0, 65537, 53, 0, 65537, 54, 0, 65537, 55, 0, 65537, 56, 0, 65537, 57, 0, 65537, 58, 0, 65537, 59, 0, 65537, 60, 0, 65538, 131071, 0, 65536, 65536, 0, 65537, 65537, 0, 65538, 65540, 0, 65536, 65541, 0, 65541, 65542, 0, 131073, 65543, 0, 131073, 65544, 0, 131073, 65545, 0, 131073, 65546, 0, 131073, 65547, 0, 131073, 65548, 0, 131073, 65549, 0, 131073, 65550, 0, 65542, 65551, 0, 65538, 65560, 0, 65536, 65561, 0, 65541, 65562, 0, 131073, 65563, 0, 131073, 65564, 0, 131073, 65565, 0, 131073, 65566, 0, 131073, 65567, 0, 131073, 65568, 0, 131073, 65569, 0, 131073, 65570, 0, 65542, 65571, 0, 65538, 65580, 0, 65536, 65581, 0, 65541, 65582, 0, 131073, 65583, 0, 131073, 65584, 0, 131073, 65585, 0, 131073, 65586, 0, 131073, 65587, 0, 131073, 65588, 0, 131073, 65589, 0, 131073, 65590, 0, 65542, 65591, 0, 65537, 65592, 0, 65537, 65593, 0, 65537, 65594, 0, 65537, 65595, 0, 65537, 65596, 0, 65538, 196607, 0, 65536, 131072, 0, 65537, 131073, 0, 65538, 131076, 0, 131072, 131077, 0, 131074, 131086, 0, 131072, 131087, 0, 131074, 131096, 0, 131072, 131097, 0, 131074, 131106, 0, 131072, 131107, 0, 131074, 131116, 0, 131072, 131117, 0, 131074, 131126, 0, 131072, 131127, 0, 131073, 131128, 0, 65542, 131129, 0, 65537, 131130, 0, 65537, 131131, 0, 65537, 131132, 0, 65538, 262143, 0, 131072, 196608, 0, 131073, 196609, 0, 131074, 196664, 0, 65536, 196665, 0, 65537, 196666, 0, 65537, 196667, 0, 65537, 196668, 0, 65538, 262200, 0, 131072, 262201, 0, 131073, 262202, 0, 131073, 262203, 0, 65542, 262204, 0, 65538, 327698, 0, 0, 327699, 0, 1, 327700, 0, 1, 327701, 0, 2, 327739, 0, 65536, 327740, 0, 65538, 393234, 0, 65536, 393235, 0, 65537, 393236, 0, 65537, 393237, 0, 65538, 393275, 0, 65536, 393276, 0, 65538, 524287, 0, 0, 458752, 0, 1, 458753, 0, 1, 458754, 0, 1, 458755, 0, 2, 458768, 0, 0, 458769, 0, 1, 458770, 0, 131078, 458771, 0, 65537, 458772, 0, 65537, 458773, 0, 131077, 458774, 0, 1, 458775, 0, 2, 458788, 0, 0, 458789, 0, 1, 458790, 0, 1, 458791, 0, 1, 458792, 0, 1, 458793, 0, 1, 458794, 0, 1, 458795, 0, 2, 458811, 0, 65536, 458812, 0, 65538, 589823, 0, 65536, 524288, 0, 65537, 524289, 0, 65537, 524290, 0, 65537, 524291, 0, 65538, 524304, 0, 65536, 524305, 0, 65537, 524306, 0, 65537, 524307, 0, 65537, 524308, 0, 65537, 524309, 0, 65537, 524310, 0, 65537, 524311, 0, 65538, 524324, 0, 65536, 524325, 0, 65537, 524326, 0, 65537, 524327, 0, 65537, 524328, 0, 65537, 524329, 0, 65537, 524330, 0, 65537, 524331, 0, 65538, 524347, 0, 65536, 524348, 0, 65538, 655359, 0, 65536, 589824, 0, 65537, 589825, 0, 65537, 589826, 0, 65537, 589827, 0, 131077, 589828, 0, 1, 589829, 0, 1, 589830, 0, 1, 589831, 0, 1, 589832, 0, 1, 589833, 0, 1, 589834, 0, 1, 589835, 0, 1, 589836, 0, 1, 589837, 0, 1, 589838, 0, 1, 589839, 0, 1, 589840, 0, 131078, 589841, 0, 65537, 589842, 0, 65537, 589843, 0, 65537, 589844, 0, 65537, 589845, 0, 65537, 589846, 0, 65537, 589847, 0, 131077, 589848, 0, 1, 589849, 0, 2, 589858, 0, 0, 589859, 0, 1, 589860, 0, 131078, 589861, 0, 65537, 589862, 0, 65537, 589863, 0, 65537, 589864, 0, 65537, 589865, 0, 65537, 589866, 0, 65537, 589867, 0, 131077, 589868, 0, 1, 589869, 0, 1, 589870, 0, 1, 589871, 0, 1, 589872, 0, 1, 589873, 0, 1, 589874, 0, 1, 589875, 0, 1, 589876, 0, 1, 589877, 0, 1, 589878, 0, 2, 589883, 0, 65536, 589884, 0, 65538, 720895, 0, 65536, 655360, 0, 65537, 655361, 0, 65537, 655362, 0, 65537, 655363, 0, 65537, 655364, 0, 65537, 655365, 0, 65537, 655366, 0, 65537, 655367, 0, 65537, 655368, 0, 65537, 655369, 0, 65537, 655370, 0, 65537, 655371, 0, 65537, 655372, 0, 65537, 655373, 0, 65537, 655374, 0, 65537, 655375, 0, 65537, 655376, 0, 65537, 655377, 0, 65537, 655378, 0, 65537, 655379, 0, 65537, 655380, 0, 65537, 655381, 0, 65537, 655382, 0, 65537, 655383, 0, 65537, 655384, 0, 65537, 655385, 0, 131077, 655386, 0, 1, 655387, 0, 1, 655388, 0, 1, 655389, 0, 1, 655390, 0, 1, 655391, 0, 1, 655392, 0, 1, 655393, 0, 1, 655394, 0, 131078, 655395, 0, 65537, 655396, 0, 65537, 655397, 0, 65537, 655398, 0, 65537, 655399, 0, 65537, 655400, 0, 65537, 655401, 0, 65537, 655402, 0, 65537, 655403, 0, 65537, 655404, 0, 65537, 655405, 0, 65537, 655406, 0, 65537, 655407, 0, 65537, 655408, 0, 65537, 655409, 0, 65537, 655410, 0, 65537, 655411, 0, 65537, 655412, 0, 65537, 655413, 0, 65537, 655414, 0, 262149, 655415, 0, 196609, 655416, 0, 196610, 655419, 0, 65536, 655420, 0, 65538, 786431, 0, 65536, 720896, 0, 65541, 720897, 0, 131073, 720898, 0, 131073, 720899, 0, 131073, 720900, 0, 131073, 720901, 0, 131073, 720902, 0, 131073, 720903, 0, 131073, 720904, 0, 131073, 720905, 0, 131073, 720906, 0, 131073, 720907, 0, 65542, 720908, 0, 65537, 720909, 0, 65537, 720910, 0, 65541, 720911, 0, 131073, 720912, 0, 131073, 720913, 0, 131073, 720914, 0, 131073, 720915, 0, 65544, 720916, 0, 131073, 720917, 0, 131073, 720918, 0, 65542, 720919, 0, 65537, 720920, 0, 65537, 720921, 0, 65541, 720922, 0, 131073, 720923, 0, 131073, 720924, 0, 65542, 720925, 0, 65537, 720926, 0, 65537, 720927, 0, 65541, 720928, 0, 131073, 720929, 0, 131073, 720930, 0, 65542, 720931, 0, 65537, 720932, 0, 65537, 720933, 0, 65541, 720934, 0, 131073, 720935, 0, 131073, 720936, 0, 65544, 720937, 0, 131073, 720938, 0, 131073, 720939, 0, 131073, 720940, 0, 131073, 720941, 0, 65542, 720942, 0, 65537, 720943, 0, 65537, 720944, 0, 65541, 720945, 0, 131073, 720946, 0, 131073, 720947, 0, 131073, 720948, 0, 131073, 720949, 0, 65542, 720950, 0, 65538, 720955, 0, 65536, 720956, 0, 65538, 851967, 0, 65536, 786432, 0, 65538, 786443, 0, 131072, 786444, 0, 65542, 786445, 0, 65541, 786446, 0, 131074, 786451, 0, 65539, 786454, 0, 131072, 786455, 0, 65542, 786456, 0, 65537, 786457, 0, 65538, 786460, 0, 131072, 786461, 0, 131073, 786462, 0, 131073, 786463, 0, 131074, 786466, 0, 65536, 786467, 0, 65537, 786468, 0, 65541, 786469, 0, 131074, 786472, 0, 65539, 786477, 0, 131072, 786478, 0, 65542, 786479, 0, 65541, 786480, 0, 131074, 786485, 0, 65536, 786486, 0, 65538, 786491, 0, 65536, 786492, 0, 65538, 917503, 0, 65536, 851968, 0, 65538, 851980, 0, 131072, 851981, 0, 131074, 851987, 0, 65539, 851991, 0, 131072, 851992, 0, 131073, 851993, 0, 131074, 852002, 0, 131072, 852003, 0, 131073, 852004, 0, 131074, 852008, 0, 65539, 852014, 0, 131072, 852015, 0, 131074, 852021, 0, 65536, 852022, 0, 65538, 852027, 0, 65536, 852028, 0, 65538, 983039, 0, 65536, 917504, 0, 65538, 917523, 0, 131075, 917544, 0, 131075, 917557, 0, 131072, 917558, 0, 131074, 917561, 0, 196608, 917562, 0, 196609, 917563, 0, 262150, 917564, 0, 65538, 1048575, 0, 65536, 983040, 0, 65538, 983099, 0, 65536, 983100, 0, 65538, 1114111, 0, 65536, 1048576, 0, 65538, 1048635, 0, 65536, 1048636, 0, 65538, 1179647, 0, 65536, 1114112, 0, 65538, 1114171, 0, 65536, 1114172, 0, 65538, 1245183, 0, 65536, 1179648, 0, 65538, 1179701, 0, 0, 1179702, 0, 5, 1179703, 0, 196609, 1179704, 0, 196610, 1179707, 0, 65536, 1179708, 0, 65538, 1310719, 0, 65536, 1245184, 0, 65538, 1245237, 0, 65536, 1245238, 0, 65538, 1245243, 0, 65536, 1245244, 0, 65538, 1376255, 0, 65536, 1310720, 0, 65538, 1310773, 0, 65536, 1310774, 0, 65538, 1310779, 0, 65536, 1310780, 0, 65538, 1441791, 0, 65536, 1376256, 0, 65538, 1376261, 0, 0, 1376262, 0, 1, 1376263, 0, 1, 1376264, 0, 1, 1376265, 0, 1, 1376266, 0, 2, 1376305, 0, 0, 1376306, 0, 1, 1376307, 0, 1, 1376308, 0, 1, 1376309, 0, 131078, 1376310, 0, 65538, 1376315, 0, 65536, 1376316, 0, 65538, 1507327, 0, 65536, 1441792, 0, 65538, 1441797, 0, 65536, 1441798, 0, 65537, 1441799, 0, 65537, 1441800, 0, 65541, 1441801, 0, 131073, 1441802, 0, 131074, 1441835, 12, 196608, 1441836, 12, 196609, 1441837, 12, 196609, 1441838, 12, 196610, 1441841, 0, 131072, 1441842, 0, 131073, 1441843, 0, 131073, 1441844, 0, 131073, 1441845, 0, 65542, 1441846, 0, 65538, 1441849, 0, 196608, 1441850, 0, 196609, 1441851, 0, 65536, 1441852, 0, 65538, 1572863, 0, 65536, 1507328, 0, 65538, 1507333, 0, 65536, 1507334, 0, 65537, 1507335, 0, 65537, 1507336, 0, 65538, 1507381, 0, 65536, 1507382, 0, 65538, 1507387, 0, 65536, 1507388, 0, 65538, 1638399, 0, 65536, 1572864, 0, 65538, 1572867, 0, 196608, 1572868, 0, 196609, 1572869, 0, 196614, 1572870, 0, 131073, 1572871, 0, 65542, 1572872, 0, 65538, 1572917, 0, 65536, 1572918, 0, 65538, 1572923, 0, 65536, 1572924, 0, 65538, 1703935, 0, 65536, 1638400, 0, 65538, 1638407, 0, 65536, 1638408, 0, 65538, 1638453, 0, 65536, 1638454, 0, 65538, 1638459, 0, 65536, 1638460, 0, 65538, 1769471, 0, 65536, 1703936, 0, 65538, 1703943, 0, 65536, 1703944, 0, 65538, 1703989, 0, 131072, 1703990, 0, 196613, 1703991, 0, 196609, 1703992, 0, 196610, 1703995, 0, 65536, 1703996, 0, 65538, 1835007, 0, 65536, 1769472, 0, 65538, 1769479, 0, 65536, 1769480, 0, 65538, 1769531, 0, 65536, 1769532, 0, 65538, 1900543, 0, 131072, 1835008, 0, 196613, 1835009, 0, 196609, 1835010, 0, 196610, 1835015, 0, 65536, 1835016, 0, 65538, 1835067, 0, 65536, 1835068, 0, 65538, 1900551, 0, 65536, 1900552, 0, 65538, 1900603, 0, 65536, 1900604, 0, 65538, 1966087, 0, 65536, 1966088, 0, 65538, 1966133, 0, 0, 1966134, 0, 1, 1966135, 0, 1, 1966136, 0, 1, 1966137, 0, 1, 1966138, 0, 1, 1966139, 0, 131078, 1966140, 0, 65538, 2031623, 0, 65536, 2031624, 0, 65538, 2031669, 0, 65536, 2031670, 0, 65537, 2031671, 0, 65537, 2031672, 0, 65537, 2031673, 0, 65537, 2031674, 0, 65537, 2031675, 0, 65537, 2031676, 0, 65538, 2162687, 0, 0, 2097152, 0, 1, 2097153, 0, 1, 2097154, 0, 1, 2097155, 0, 1, 2097156, 0, 1, 2097157, 0, 1, 2097158, 0, 1, 2097159, 0, 131078, 2097160, 0, 131077, 2097161, 0, 1, 2097162, 0, 1, 2097163, 0, 1, 2097164, 0, 1, 2097165, 0, 1, 2097166, 0, 1, 2097167, 0, 1, 2097168, 0, 1, 2097169, 0, 1, 2097170, 0, 1, 2097171, 0, 1, 2097172, 0, 1, 2097173, 0, 1, 2097174, 0, 1, 2097175, 0, 1, 2097176, 0, 1, 2097177, 0, 1, 2097178, 0, 1, 2097179, 0, 1, 2097180, 0, 1, 2097181, 0, 1, 2097182, 0, 1, 2097183, 0, 1, 2097184, 0, 1, 2097185, 0, 1, 2097186, 0, 1, 2097187, 0, 1, 2097188, 0, 1, 2097189, 0, 1, 2097190, 0, 1, 2097191, 0, 1, 2097192, 0, 1, 2097193, 0, 1, 2097194, 0, 1, 2097195, 0, 1, 2097196, 0, 1, 2097197, 0, 1, 2097198, 0, 1, 2097199, 0, 1, 2097200, 0, 1, 2097201, 0, 1, 2097202, 0, 1, 2097203, 0, 1, 2097204, 0, 1, 2097205, 0, 131078, 2097206, 0, 65537, 2097207, 0, 65537, 2097208, 0, 65537, 2097209, 0, 65537, 2097210, 0, 65537, 2097211, 0, 65537, 2097212, 0, 65538, 2228223, 0, 131072, 2162688, 0, 131073, 2162689, 0, 131073, 2162690, 0, 131073, 2162691, 0, 131073, 2162692, 0, 131073, 2162693, 0, 131073, 2162694, 0, 131073, 2162695, 0, 131073, 2162696, 0, 131073, 2162697, 0, 131073, 2162698, 0, 131073, 2162699, 0, 131073, 2162700, 0, 131073, 2162701, 0, 131073, 2162702, 0, 131073, 2162703, 0, 131073, 2162704, 0, 131073, 2162705, 0, 131073, 2162706, 0, 131073, 2162707, 0, 131073, 2162708, 0, 131073, 2162709, 0, 131073, 2162710, 0, 131073, 2162711, 0, 131073, 2162712, 0, 131073, 2162713, 0, 131073, 2162714, 0, 131073, 2162715, 0, 131073, 2162716, 0, 131073, 2162717, 0, 131073, 2162718, 0, 131073, 2162719, 0, 131073, 2162720, 0, 131073, 2162721, 0, 131073, 2162722, 0, 131073, 2162723, 0, 131073, 2162724, 0, 131073, 2162725, 0, 131073, 2162726, 0, 131073, 2162727, 0, 131073, 2162728, 0, 131073, 2162729, 0, 131073, 2162730, 0, 131073, 2162731, 0, 131073, 2162732, 0, 131073, 2162733, 0, 131073, 2162734, 0, 131073, 2162735, 0, 131073, 2162736, 0, 131073, 2162737, 0, 131073, 2162738, 0, 131073, 2162739, 0, 131073, 2162740, 0, 131073, 2162741, 0, 131073, 2162742, 0, 131073, 2162743, 0, 131073, 2162744, 0, 131073, 2162745, 0, 131073, 2162746, 0, 131073, 2162747, 0, 131073, 2162748, 0, 131074 )

[node name="TileMap_Glitched" type="TileMap" parent="."]
material = SubResource( 2 )
tile_set = ExtResource( 3 )
cell_size = Vector2( 16, 16 )
format = 1
tile_data = PoolIntArray( 1114136, 12, 196608, 1114137, 12, 7, 1114147, 12, 3, 1179673, 12, 65539, 1179682, 12, 4, 1179683, 12, 196615, 1245209, 12, 131075, 1245212, 12, 196608, 1245213, 12, 196609, 1245214, 12, 196609, 1245215, 12, 196610, 1245218, 12, 131075, 1310739, 12, 196608, 1310740, 12, 7, 1310757, 12, 0, 1310758, 12, 2, 1376269, 12, 196608, 1376270, 12, 196609, 1376271, 12, 196609, 1376272, 12, 196610, 1376276, 12, 196612, 1376277, 12, 196610, 1376293, 12, 131072, 1376294, 12, 131074, 1441835, 12, 196608, 1441836, 12, 196609, 1441837, 12, 196609, 1441838, 12, 196610, 1507358, 12, 196608, 1507359, 12, 196609, 1507360, 12, 7, 1572883, 12, 3, 1572896, 12, 131075, 1572903, 12, 196608, 1572904, 12, 7, 1638419, 12, 65539, 1638427, 12, 3, 1638440, 12, 196612, 1638441, 12, 196610, 1703954, 12, 196608, 1703955, 12, 196615, 1703961, 12, 196608, 1703962, 12, 196609, 1703963, 12, 196615, 1703971, 12, 0, 1703972, 12, 2, 1769507, 12, 131072, 1769508, 12, 131074 )

[node name="Background" type="TileMap" parent="."]
z_index = -20
tile_set = ExtResource( 3 )
cell_size = Vector2( 16, 16 )
format = 1
tile_data = PoolIntArray( -65538, 7, 0, -65537, 7, 0, -131072, 7, 0, -131071, 7, 0, -131070, 7, 0, -131069, 7, 0, -131068, 7, 0, -131067, 7, 0, -131066, 7, 0, -131065, 7, 0, -131064, 7, 0, -131063, 7, 0, -131062, 7, 0, -131061, 7, 0, -131060, 7, 0, -131059, 7, 0, -131058, 7, 0, -131057, 7, 0, -131056, 7, 0, -131055, 7, 0, -131054, 7, 0, -131053, 7, 0, -131052, 7, 0, -131051, 7, 0, -131050, 7, 0, -131049, 7, 0, -131048, 7, 0, -131047, 7, 0, -131046, 7, 0, -131045, 7, 0, -131044, 7, 0, -131043, 7, 0, -131042, 7, 0, -131041, 7, 0, -131040, 7, 0, -131039, 7, 0, -131038, 7, 0, -131037, 7, 0, -131036, 7, 0, -131035, 7, 0, -131034, 7, 0, -131033, 7, 0, -131032, 7, 0, -131031, 7, 0, -131030, 7, 0, -131029, 7, 0, -131028, 7, 0, -131027, 7, 0, -131026, 7, 0, -131025, 7, 0, -131024, 7, 0, -131023, 7, 0, -131022, 7, 0, -131021, 7, 0, -131020, 7, 0, -131019, 7, 0, -131018, 7, 0, -131017, 7, 0, -131016, 7, 0, -131015, 7, 0, -131014, 7, 0, -131013, 7, 0, -131012, 7, 0, -131011, 7, 0, -2, 7, 0, -1, 7, 0, -65536, 7, 0, -65535, 7, 0, -65534, 7, 0, -65533, 7, 0, -65532, 7, 0, -65531, 7, 0, -65530, 7, 0, -65529, 7, 0, -65528, 7, 0, -65527, 7, 0, -65526, 7, 0, -65525, 7, 0, -65524, 7, 0, -65523, 7, 0, -65522, 7, 0, -65521, 7, 0, -65520, 7, 0, -65519, 7, 0, -65518, 7, 0, -65517, 7, 0, -65516, 7, 0, -65515, 7, 0, -65514, 7, 0, -65513, 7, 0, -65512, 7, 0, -65511, 7, 0, -65510, 7, 0, -65509, 7, 0, -65508, 7, 0, -65507, 7, 0, -65506, 7, 0, -65505, 7, 0, -65504, 7, 0, -65503, 7, 0, -65502, 7, 0, -65501, 7, 0, -65500, 7, 0, -65499, 7, 0, -65498, 7, 0, -65497, 7, 0, -65496, 7, 0, -65495, 7, 0, -65494, 7, 0, -65493, 7, 0, -65492, 7, 0, -65491, 7, 0, -65490, 7, 0, -65489, 7, 0, -65488, 7, 0, -65487, 7, 0, -65486, 7, 0, -65485, 7, 0, -65484, 7, 0, -65483, 7, 0, -65482, 7, 0, -65481, 7, 0, -65480, 7, 0, -65479, 7, 0, -65478, 7, 0, -65477, 7, 0, -65476, 7, 0, -65475, 7, 0, 65534, 7, 0, 65535, 7, 0, 0, 7, 0, 1, 7, 0, 2, 7, 0, 3, 7, 0, 4, 7, 0, 5, 7, 0, 6, 7, 0, 7, 7, 0, 8, 7, 0, 9, 7, 0, 10, 7, 0, 11, 7, 0, 12, 7, 0, 13, 7, 0, 14, 7, 0, 15, 7, 0, 16, 7, 0, 17, 7, 0, 18, 7, 0, 19, 7, 0, 20, 7, 0, 21, 7, 0, 22, 7, 0, 23, 7, 0, 24, 7, 0, 25, 7, 0, 26, 7, 0, 27, 7, 0, 28, 7, 0, 29, 7, 0, 30, 7, 0, 31, 7, 0, 32, 7, 0, 33, 7, 0, 34, 7, 0, 35, 7, 0, 36, 7, 0, 37, 7, 0, 38, 7, 0, 39, 7, 0, 40, 7, 0, 41, 7, 0, 42, 7, 0, 43, 7, 0, 44, 7, 0, 45, 7, 0, 46, 7, 0, 47, 7, 0, 48, 7, 0, 49, 7, 0, 50, 7, 0, 51, 7, 0, 52, 7, 0, 53, 7, 0, 54, 7, 0, 55, 7, 0, 56, 7, 0, 57, 7, 0, 58, 7, 0, 59, 7, 0, 60, 7, 0, 61, 7, 0, 131070, 7, 0, 131071, 7, 0, 65536, 7, 0, 65537, 7, 0, 65538, 1, 0, 65539, 1, 0, 65540, 7, 0, 65541, 7, 0, 65542, 7, 0, 65543, 7, 0, 65544, 7, 0, 65545, 7, 0, 65546, 7, 0, 65547, 7, 0, 65548, 7, 0, 65549, 7, 0, 65550, 7, 0, 65551, 7, 0, 65552, 1, 0, 65553, 1, 0, 65554, 6, 0, 65555, 1, 0, 65556, 1, 0, 65557, 6, 0, 65558, 1, 0, 65559, 1, 0, 65560, 7, 0, 65561, 7, 0, 65562, 7, 0, 65563, 7, 0, 65564, 7, 0, 65565, 7, 0, 65566, 7, 0, 65567, 7, 0, 65568, 7, 0, 65569, 7, 0, 65570, 7, 0, 65571, 7, 0, 65572, 1, 0, 65573, 1, 0, 65574, 6, 0, 65575, 1, 0, 65576, 1, 0, 65577, 6, 0, 65578, 1, 0, 65579, 1, 0, 65580, 7, 0, 65581, 7, 0, 65582, 7, 0, 65583, 7, 0, 65584, 7, 0, 65585, 7, 0, 65586, 7, 0, 65587, 7, 0, 65588, 7, 0, 65589, 7, 0, 65590, 7, 0, 65591, 7, 0, 65592, 1, 0, 65593, 1, 0, 65594, 7, 0, 65595, 7, 0, 65596, 7, 0, 65597, 7, 0, 196606, 7, 0, 196607, 7, 0, 131072, 7, 0, 131073, 7, 0, 131074, 7, 0, 131075, 7, 0, 131076, 7, 0, 131077, 7, 0, 131078, 1, 0, 131079, 6, 0, 131080, 1, 0, 131081, 1, 0, 131082, 1, 0, 131083, 1, 0, 131084, 6, 0, 131085, 1, 0, 131086, 7, 0, 131087, 7, 0, 131088, 7, 0, 131089, 7, 0, 131090, 7, 0, 131091, 7, 0, 131092, 7, 0, 131093, 7, 0, 131094, 7, 0, 131095, 7, 0, 131096, 7, 0, 131097, 7, 0, 131098, 1, 0, 131099, 6, 0, 131100, 1, 0, 131101, 1, 0, 131102, 1, 0, 131103, 1, 0, 131104, 6, 0, 131105, 1, 0, 131106, 7, 0, 131107, 7, 0, 131108, 7, 0, 131109, 7, 0, 131110, 7, 0, 131111, 7, 0, 131112, 7, 0, 131113, 7, 0, 131114, 7, 0, 131115, 7, 0, 131116, 7, 0, 131117, 7, 0, 131118, 1, 0, 131119, 6, 0, 131120, 1, 0, 131121, 1, 0, 131122, 1, 0, 131123, 1, 0, 131124, 6, 0, 131125, 1, 0, 131126, 7, 0, 131127, 7, 0, 131128, 7, 0, 131129, 7, 0, 131130, 7, 0, 131131, 7, 0, 131132, 7, 0, 131133, 7, 0, 262142, 7, 0, 262143, 7, 0, 196608, 7, 0, 196609, 7, 0, 196610, 7, 0, 196611, 7, 0, 196612, 1, 0, 196613, 1, 0, 196614, 11, 0, 196615, 11, 1, 196616, 11, 1, 196617, 11, 1, 196618, 11, 1, 196619, 11, 1, 196620, 11, 1, 196621, 11, 2, 196622, 1, 0, 196623, 1, 0, 196624, 7, 0, 196625, 7, 0, 196626, 7, 0, 196627, 7, 0, 196628, 7, 0, 196629, 7, 0, 196630, 7, 0, 196631, 7, 0, 196632, 1, 0, 196633, 1, 0, 196634, 11, 0, 196635, 11, 1, 196636, 11, 1, 196637, 11, 1, 196638, 11, 1, 196639, 11, 1, 196640, 11, 1, 196641, 11, 2, 196642, 1, 0, 196643, 1, 0, 196644, 7, 0, 196645, 7, 0, 196646, 7, 0, 196647, 7, 0, 196648, 7, 0, 196649, 7, 0, 196650, 7, 0, 196651, 7, 0, 196652, 1, 0, 196653, 1, 0, 196654, 11, 0, 196655, 11, 1, 196656, 11, 1, 196657, 11, 1, 196658, 11, 1, 196659, 11, 1, 196660, 11, 1, 196661, 11, 2, 196662, 1, 0, 196663, 1, 0, 196664, 7, 0, 196665, 7, 0, 196666, 7, 0, 196667, 7, 0, 196668, 7, 0, 196669, 7, 0, 327678, 7, 0, 327679, 1, 0, 262144, 1, 0, 262145, 1, 0, 262146, 7, 0, 262147, 7, 0, 262148, 7, 0, 262149, 7, 0, 262150, 11, 65536, 262151, 11, 65537, 262152, 11, 65537, 262153, 11, 65537, 262154, 11, 65537, 262155, 11, 65537, 262156, 11, 65537, 262157, 11, 65538, 262158, 7, 0, 262159, 7, 0, 262160, 7, 0, 262161, 7, 0, 262162, 7, 0, 262163, 7, 0, 262164, 7, 0, 262165, 7, 0, 262166, 7, 0, 262167, 7, 0, 262168, 7, 0, 262169, 7, 0, 262170, 11, 65536, 262171, 11, 65537, 262172, 11, 65537, 262173, 11, 65537, 262174, 11, 65537, 262175, 11, 65537, 262176, 11, 65537, 262177, 11, 65538, 262178, 7, 0, 262179, 7, 0, 262180, 7, 0, 262181, 7, 0, 262182, 7, 0, 262183, 7, 0, 262184, 7, 0, 262185, 7, 0, 262186, 7, 0, 262187, 7, 0, 262188, 7, 0, 262189, 7, 0, 262190, 11, 65536, 262191, 11, 65537, 262192, 11, 65537, 262193, 11, 65537, 262194, 11, 65537, 262195, 11, 65537, 262196, 11, 65537, 262197, 11, 65538, 262198, 7, 0, 262199, 7, 0, 262200, 7, 0, 262201, 7, 0, 262202, 1, 0, 262203, 1, 0, 262204, 1, 0, 262205, 7, 0, 393214, 7, 0, 393215, 7, 0, 327680, 2, 0, 327681, 2, 0, 327682, 2, 0, 327683, 2, 0, 327684, 2, 0, 327685, 2, 0, 327686, 2, 0, 327687, 2, 0, 327688, 2, 0, 327689, 2, 0, 327690, 2, 0, 327691, 2, 0, 327692, 2, 0, 327693, 2, 0, 327694, 2, 0, 327695, 2, 0, 327696, 2, 0, 327697, 2, 0, 327698, 2, 0, 327699, 2, 0, 327700, 2, 0, 327701, 2, 0, 327702, 2, 0, 327703, 2, 0, 327704, 2, 0, 327705, 2, 0, 327706, 2, 0, 327707, 2, 0, 327708, 2, 0, 327709, 2, 0, 327710, 2, 0, 327711, 2, 0, 327712, 2, 0, 327713, 2, 0, 327714, 2, 0, 327715, 2, 0, 327716, 2, 0, 327717, 2, 0, 327718, 2, 0, 327719, 2, 0, 327720, 2, 0, 327721, 2, 0, 327722, 2, 0, 327723, 2, 0, 327724, 2, 0, 327725, 2, 0, 327726, 2, 0, 327727, 2, 0, 327728, 2, 0, 327729, 2, 0, 327730, 2, 0, 327731, 2, 0, 327732, 2, 0, 327733, 2, 0, 327734, 2, 0, 327735, 2, 0, 327736, 2, 0, 327737, 2, 0, 327738, 2, 0, 327739, 2, 0, 327740, 7, 0, 327741, 7, 0, 458750, 7, 0, 458751, 7, 0, 393216, 7, 0, 393217, 7, 0, 393218, 7, 0, 393219, 7, 0, 393220, 7, 0, 393221, 7, 0, 393222, 7, 0, 393223, 7, 0, 393224, 7, 0, 393225, 7, 0, 393226, 7, 0, 393227, 7, 0, 393228, 7, 0, 393229, 7, 0, 393230, 7, 0, 393231, 7, 0, 393232, 7, 0, 393233, 7, 0, 393234, 7, 0, 393235, 7, 0, 393236, 7, 0, 393237, 7, 0, 393238, 7, 0, 393239, 7, 0, 393240, 7, 0, 393241, 7, 0, 393242, 7, 0, 393243, 7, 0, 393244, 7, 0, 393245, 7, 0, 393246, 7, 0, 393247, 7, 0, 393248, 7, 0, 393249, 7, 0, 393250, 7, 0, 393251, 7, 0, 393252, 7, 0, 393253, 7, 0, 393254, 7, 0, 393255, 7, 0, 393256, 7, 0, 393257, 7, 0, 393258, 7, 0, 393259, 7, 0, 393260, 7, 0, 393261, 7, 0, 393262, 7, 0, 393263, 7, 0, 393264, 7, 0, 393265, 7, 0, 393266, 7, 0, 393267, 7, 0, 393268, 7, 0, 393269, 7, 0, 393270, 7, 0, 393271, 7, 0, 393272, 7, 0, 393273, 7, 0, 393274, 7, 0, 393275, 7, 0, 393276, 7, 0, 393277, 7, 0, 524286, 7, 0, 524287, 7, 0, 458752, 7, 0, 458753, 7, 0, 458754, 7, 0, 458755, 7, 0, 458756, 7, 0, 458757, 7, 0, 458758, 7, 0, 458759, 7, 0, 458760, 7, 0, 458761, 7, 0, 458762, 7, 0, 458763, 7, 0, 458764, 7, 0, 458765, 7, 0, 458766, 7, 0, 458767, 7, 0, 458768, 7, 0, 458769, 7, 0, 458770, 7, 0, 458771, 7, 0, 458772, 7, 0, 458773, 7, 0, 458774, 7, 0, 458775, 7, 0, 458776, 7, 0, 458777, 7, 0, 458778, 7, 0, 458779, 7, 0, 458780, 7, 0, 458781, 7, 0, 458782, 7, 0, 458783, 7, 0, 458784, 7, 0, 458785, 7, 0, 458786, 7, 0, 458787, 7, 0, 458788, 7, 0, 458789, 7, 0, 458790, 7, 0, 458791, 7, 0, 458792, 7, 0, 458793, 7, 0, 458794, 7, 0, 458795, 7, 0, 458796, 7, 0, 458797, 7, 0, 458798, 7, 0, 458799, 7, 0, 458800, 7, 0, 458801, 7, 0, 458802, 7, 0, 458803, 7, 0, 458804, 7, 0, 458805, 7, 0, 458806, 7, 0, 458807, 7, 0, 458808, 7, 0, 458809, 7, 0, 458810, 7, 0, 458811, 7, 0, 458812, 7, 0, 458813, 7, 0, 589822, 7, 0, 589823, 7, 0, 524288, 7, 0, 524289, 7, 0, 524290, 7, 0, 524291, 7, 0, 524292, 7, 0, 524293, 7, 0, 524294, 7, 0, 524295, 7, 0, 524296, 7, 0, 524297, 7, 0, 524298, 7, 0, 524299, 7, 0, 524300, 7, 0, 524301, 7, 0, 524302, 7, 0, 524303, 7, 0, 524304, 7, 0, 524305, 7, 0, 524306, 7, 0, 524307, 7, 0, 524308, 7, 0, 524309, 7, 0, 524310, 7, 0, 524311, 7, 0, 524312, 7, 0, 524313, 7, 0, 524314, 7, 0, 524315, 7, 0, 524316, 7, 0, 524317, 7, 0, 524318, 7, 0, 524319, 7, 0, 524320, 7, 0, 524321, 7, 0, 524322, 7, 0, 524323, 7, 0, 524324, 7, 0, 524325, 7, 0, 524326, 7, 0, 524327, 7, 0, 524328, 7, 0, 524329, 7, 0, 524330, 7, 0, 524331, 7, 0, 524332, 7, 0, 524333, 7, 0, 524334, 7, 0, 524335, 7, 0, 524336, 7, 0, 524337, 7, 0, 524338, 7, 0, 524339, 7, 0, 524340, 7, 0, 524341, 7, 0, 524342, 7, 0, 524343, 7, 0, 524344, 7, 0, 524345, 7, 0, 524346, 7, 0, 524347, 7, 0, 524348, 7, 0, 524349, 7, 0, 655358, 7, 0, 655359, 7, 0, 589824, 7, 0, 589825, 7, 0, 589826, 7, 0, 589827, 7, 0, 589828, 7, 0, 589829, 7, 0, 589830, 7, 0, 589831, 7, 0, 589832, 7, 0, 589833, 7, 0, 589834, 7, 0, 589835, 7, 0, 589836, 7, 0, 589837, 7, 0, 589838, 7, 0, 589839, 7, 0, 589840, 7, 0, 589841, 7, 0, 589842, 7, 0, 589843, 7, 0, 589844, 7, 0, 589845, 7, 0, 589846, 7, 0, 589847, 7, 0, 589848, 7, 0, 589849, 7, 0, 589850, 7, 0, 589851, 7, 0, 589852, 7, 0, 589853, 7, 0, 589854, 7, 0, 589855, 7, 0, 589856, 7, 0, 589857, 7, 0, 589858, 7, 0, 589859, 7, 0, 589860, 7, 0, 589861, 7, 0, 589862, 7, 0, 589863, 7, 0, 589864, 7, 0, 589865, 7, 0, 589866, 7, 0, 589867, 7, 0, 589868, 7, 0, 589869, 7, 0, 589870, 7, 0, 589871, 7, 0, 589872, 7, 0, 589873, 7, 0, 589874, 7, 0, 589875, 7, 0, 589876, 7, 0, 589877, 7, 0, 589878, 7, 0, 589879, 7, 0, 589880, 7, 0, 589881, 7, 0, 589882, 7, 0, 589883, 7, 0, 589884, 7, 0, 589885, 7, 0, 720894, 7, 0, 720895, 7, 0, 655360, 7, 0, 655361, 7, 0, 655362, 7, 0, 655363, 7, 0, 655364, 7, 0, 655365, 7, 0, 655366, 7, 0, 655367, 7, 0, 655368, 7, 0, 655369, 7, 0, 655370, 7, 0, 655371, 7, 0, 655372, 7, 0, 655373, 7, 0, 655374, 7, 0, 655375, 7, 0, 655376, 7, 0, 655377, 7, 0, 655378, 7, 0, 655379, 7, 0, 655380, 7, 0, 655381, 7, 0, 655382, 7, 0, 655383, 7, 0, 655384, 7, 0, 655385, 7, 0, 655386, 7, 0, 655387, 7, 0, 655388, 7, 0, 655389, 7, 0, 655390, 7, 0, 655391, 7, 0, 655392, 7, 0, 655393, 7, 0, 655394, 7, 0, 655395, 7, 0, 655396, 7, 0, 655397, 7, 0, 655398, 7, 0, 655399, 7, 0, 655400, 7, 0, 655401, 7, 0, 655402, 7, 0, 655403, 7, 0, 655404, 7, 0, 655405, 7, 0, 655406, 7, 0, 655407, 7, 0, 655408, 7, 0, 655409, 7, 0, 655410, 7, 0, 655411, 7, 0, 655412, 7, 0, 655413, 7, 0, 655414, 7, 0, 655415, 7, 0, 655416, 7, 0, 655417, 7, 0, 655418, 7, 0, 655419, 7, 0, 655420, 7, 0, 655421, 7, 0, 786430, 7, 0, 786431, 7, 0, 720896, 7, 0, 720897, 7, 0, 720898, 7, 0, 720899, 7, 0, 720900, 7, 0, 720901, 7, 0, 720902, 7, 0, 720903, 7, 0, 720904, 7, 0, 720905, 7, 0, 720906, 7, 0, 720907, 7, 0, 720908, 7, 0, 720909, 7, 0, 720910, 7, 0, 720911, 7, 0, 720912, 7, 0, 720913, 7, 0, 720914, 7, 0, 720915, 7, 0, 720916, 7, 0, 720917, 7, 0, 720918, 7, 0, 720919, 7, 0, 720920, 7, 0, 720921, 7, 0, 720922, 7, 0, 720923, 7, 0, 720924, 7, 0, 720925, 7, 0, 720926, 7, 0, 720927, 7, 0, 720928, 7, 0, 720929, 7, 0, 720930, 7, 0, 720931, 7, 0, 720932, 7, 0, 720933, 7, 0, 720934, 7, 0, 720935, 7, 0, 720936, 7, 0, 720937, 7, 0, 720938, 7, 0, 720939, 7, 0, 720940, 7, 0, 720941, 7, 0, 720942, 7, 0, 720943, 7, 0, 720944, 7, 0, 720945, 7, 0, 720946, 7, 0, 720947, 7, 0, 720948, 7, 0, 720949, 7, 0, 720950, 7, 0, 720951, 1, 0, 720952, 6, 0, 720953, 7, 0, 720954, 7, 0, 720955, 7, 0, 720956, 7, 0, 720957, 7, 0, 851966, 7, 0, 851967, 7, 0, 786432, 7, 0, 786433, 1, 0, 786434, 1, 0, 786435, 1, 0, 786436, 1, 0, 786437, 1, 0, 786438, 1, 0, 786439, 1, 0, 786440, 1, 0, 786441, 1, 0, 786442, 1, 0, 786443, 1, 0, 786444, 1, 0, 786445, 1, 0, 786446, 1, 0, 786447, 1, 0, 786448, 1, 0, 786449, 1, 0, 786450, 1, 0, 786451, 1, 0, 786452, 1, 0, 786453, 1, 0, 786454, 1, 0, 786455, 1, 0, 786456, 1, 0, 786457, 1, 0, 786458, 1, 0, 786459, 1, 0, 786460, 1, 0, 786461, 1, 0, 786462, 1, 0, 786463, 1, 0, 786464, 1, 0, 786465, 1, 0, 786466, 1, 0, 786467, 1, 0, 786468, 1, 0, 786469, 1, 0, 786470, 1, 0, 786471, 1, 0, 786472, 1, 0, 786473, 1, 0, 786474, 1, 0, 786475, 1, 0, 786476, 1, 0, 786477, 1, 0, 786478, 1, 0, 786479, 1, 0, 786480, 1, 0, 786481, 1, 0, 786482, 1, 0, 786483, 1, 0, 786484, 1, 0, 786485, 7, 0, 786486, 7, 0, 786487, 7, 0, 786488, 7, 0, 786489, 7, 0, 786490, 7, 0, 786491, 7, 0, 786492, 7, 0, 786493, 7, 0, 917502, 7, 0, 917503, 7, 0, 851968, 7, 0, 851969, 7, 0, 851970, 7, 0, 851971, 7, 0, 851972, 7, 0, 851973, 7, 0, 851974, 7, 0, 851975, 7, 0, 851976, 7, 0, 851977, 7, 0, 851978, 7, 0, 851979, 1, 0, 851980, 7, 0, 851981, 7, 0, 851982, 1, 0, 851983, 7, 0, 851984, 7, 0, 851985, 7, 0, 851986, 7, 0, 851987, 7, 0, 851988, 7, 0, 851989, 7, 0, 851990, 1, 0, 851991, 7, 0, 851992, 7, 0, 851993, 7, 0, 851994, 7, 0, 851995, 7, 0, 851996, 1, 0, 851997, 1, 0, 851998, 1, 0, 851999, 1, 0, 852000, 7, 0, 852001, 7, 0, 852002, 7, 0, 852003, 7, 0, 852004, 7, 0, 852005, 1, 0, 852006, 7, 0, 852007, 7, 0, 852008, 7, 0, 852009, 7, 0, 852010, 7, 0, 852011, 7, 0, 852012, 7, 0, 852013, 1, 0, 852014, 7, 0, 852015, 7, 0, 852016, 1, 0, 852017, 7, 0, 852018, 7, 0, 852019, 7, 0, 852020, 7, 0, 852021, 7, 0, 852022, 7, 0, 852023, 7, 0, 852024, 7, 0, 852025, 7, 0, 852026, 7, 0, 852027, 7, 0, 852028, 7, 0, 852029, 7, 0, 983038, 7, 0, 983039, 7, 0, 917504, 7, 0, 917505, 7, 0, 917506, 7, 0, 917507, 7, 0, 917508, 7, 0, 917509, 7, 0, 917510, 7, 0, 917511, 7, 0, 917512, 7, 0, 917513, 7, 0, 917514, 7, 0, 917515, 7, 0, 917516, 6, 0, 917517, 1, 0, 917518, 7, 0, 917519, 7, 0, 917520, 7, 0, 917521, 7, 0, 917522, 7, 0, 917523, 7, 0, 917524, 7, 0, 917525, 7, 0, 917526, 7, 0, 917527, 1, 0, 917528, 6, 0, 917529, 1, 0, 917530, 7, 0, 917531, 7, 0, 917532, 7, 0, 917533, 7, 0, 917534, 7, 0, 917535, 7, 0, 917536, 7, 0, 917537, 7, 0, 917538, 1, 0, 917539, 6, 0, 917540, 1, 0, 917541, 7, 0, 917542, 7, 0, 917543, 7, 0, 917544, 7, 0, 917545, 7, 0, 917546, 7, 0, 917547, 7, 0, 917548, 7, 0, 917549, 7, 0, 917550, 1, 0, 917551, 6, 0, 917552, 7, 0, 917553, 7, 0, 917554, 7, 0, 917555, 7, 0, 917556, 7, 0, 917557, 7, 0, 917558, 7, 0, 917559, 7, 0, 917560, 7, 0, 917561, 7, 0, 917562, 7, 0, 917563, 7, 0, 917564, 7, 0, 917565, 7, 0, 1048574, 7, 0, 1048575, 7, 0, 983040, 7, 0, 983041, 7, 0, 983042, 7, 0, 983043, 7, 0, 983044, 7, 0, 983045, 7, 0, 983046, 7, 0, 983047, 7, 0, 983048, 7, 0, 983049, 7, 0, 983050, 7, 0, 983051, 7, 0, 983052, 7, 0, 983053, 7, 0, 983054, 7, 0, 983055, 7, 0, 983056, 7, 0, 983057, 7, 0, 983058, 7, 0, 983059, 6, 0, 983060, 7, 0, 983061, 7, 0, 983062, 7, 0, 983063, 7, 0, 983064, 7, 0, 983065, 7, 0, 983066, 7, 0, 983067, 7, 0, 983068, 7, 0, 983069, 7, 0, 983070, 7, 0, 983071, 7, 0, 983072, 7, 0, 983073, 7, 0, 983074, 7, 0, 983075, 7, 0, 983076, 7, 0, 983077, 7, 0, 983078, 7, 0, 983079, 7, 0, 983080, 6, 0, 983081, 7, 0, 983082, 7, 0, 983083, 7, 0, 983084, 7, 0, 983085, 7, 0, 983086, 7, 0, 983087, 7, 0, 983088, 7, 0, 983089, 7, 0, 983090, 7, 0, 983091, 7, 0, 983092, 7, 0, 983093, 1, 0, 983094, 1, 0, 983095, 7, 0, 983096, 7, 0, 983097, 1, 0, 983098, 1, 0, 983099, 7, 0, 983100, 7, 0, 983101, 7, 0, 1114110, 7, 0, 1114111, 7, 0, 1048576, 7, 0, 1048577, 7, 0, 1048578, 7, 0, 1048579, 7, 0, 1048580, 7, 0, 1048581, 7, 0, 1048582, 7, 0, 1048583, 7, 0, 1048584, 7, 0, 1048585, 7, 0, 1048586, 7, 0, 1048587, 7, 0, 1048588, 7, 0, 1048589, 7, 0, 1048590, 7, 0, 1048591, 7, 0, 1048592, 7, 0, 1048593, 7, 0, 1048594, 7, 0, 1048595, 7, 0, 1048596, 7, 0, 1048597, 7, 0, 1048598, 7, 0, 1048599, 7, 0, 1048600, 7, 0, 1048601, 7, 0, 1048602, 7, 0, 1048603, 7, 0, 1048604, 7, 0, 1048605, 7, 0, 1048606, 7, 0, 1048607, 7, 0, 1048608, 7, 0, 1048609, 7, 0, 1048610, 7, 0, 1048611, 7, 0, 1048612, 7, 0, 1048613, 7, 0, 1048614, 7, 0, 1048615, 7, 0, 1048616, 7, 0, 1048617, 7, 0, 1048618, 7, 0, 1048619, 7, 0, 1048620, 7, 0, 1048621, 7, 0, 1048622, 7, 0, 1048623, 7, 0, 1048624, 7, 0, 1048625, 7, 0, 1048626, 7, 0, 1048627, 7, 0, 1048628, 7, 0, 1048629, 7, 0, 1048630, 7, 0, 1048631, 7, 0, 1048632, 7, 0, 1048633, 7, 0, 1048634, 7, 0, 1048635, 7, 0, 1048636, 7, 0, 1048637, 7, 0, 1179646, 7, 0, 1179647, 7, 0, 1114112, 7, 0, 1114113, 7, 0, 1114114, 7, 0, 1114115, 7, 0, 1114116, 7, 0, 1114117, 7, 0, 1114118, 7, 0, 1114119, 7, 0, 1114120, 7, 0, 1114121, 7, 0, 1114122, 7, 0, 1114123, 7, 0, 1114124, 7, 0, 1114125, 7, 0, 1114126, 7, 0, 1114127, 7, 0, 1114128, 7, 0, 1114129, 7, 0, 1114130, 7, 0, 1114131, 7, 0, 1114132, 7, 0, 1114133, 7, 0, 1114134, 7, 0, 1114135, 7, 0, 1114136, 7, 0, 1114137, 7, 0, 1114138, 7, 0, 1114139, 7, 0, 1114140, 7, 0, 1114141, 7, 0, 1114142, 7, 0, 1114143, 7, 0, 1114144, 7, 0, 1114145, 7, 0, 1114146, 7, 0, 1114147, 7, 0, 1114148, 7, 0, 1114149, 7, 0, 1114150, 7, 0, 1114151, 7, 0, 1114152, 7, 0, 1114153, 7, 0, 1114154, 7, 0, 1114155, 7, 0, 1114156, 7, 0, 1114157, 7, 0, 1114158, 7, 0, 1114159, 7, 0, 1114160, 7, 0, 1114161, 7, 0, 1114162, 7, 0, 1114163, 7, 0, 1114164, 7, 0, 1114165, 7, 0, 1114166, 7, 0, 1114167, 7, 0, 1114168, 7, 0, 1114169, 7, 0, 1114170, 7, 0, 1114171, 7, 0, 1114172, 7, 0, 1114173, 7, 0, 1245182, 7, 0, 1245183, 7, 0, 1179648, 7, 0, 1179649, 7, 0, 1179650, 7, 0, 1179651, 7, 0, 1179652, 7, 0, 1179653, 7, 0, 1179654, 7, 0, 1179655, 7, 0, 1179656, 7, 0, 1179657, 7, 0, 1179658, 7, 0, 1179659, 7, 0, 1179660, 7, 0, 1179661, 7, 0, 1179662, 7, 0, 1179663, 7, 0, 1179664, 7, 0, 1179665, 7, 0, 1179666, 7, 0, 1179667, 7, 0, 1179668, 7, 0, 1179669, 7, 0, 1179670, 7, 0, 1179671, 7, 0, 1179672, 7, 0, 1179673, 7, 0, 1179674, 7, 0, 1179675, 7, 0, 1179676, 7, 0, 1179677, 7, 0, 1179678, 7, 0, 1179679, 7, 0, 1179680, 7, 0, 1179681, 7, 0, 1179682, 7, 0, 1179683, 7, 0, 1179684, 7, 0, 1179685, 7, 0, 1179686, 7, 0, 1179687, 7, 0, 1179688, 7, 0, 1179689, 7, 0, 1179690, 7, 0, 1179691, 7, 0, 1179692, 7, 0, 1179693, 7, 0, 1179694, 7, 0, 1179695, 7, 0, 1179696, 7, 0, 1179697, 7, 0, 1179698, 7, 0, 1179699, 7, 0, 1179700, 7, 0, 1179701, 7, 0, 1179702, 7, 0, 1179703, 7, 0, 1179704, 7, 0, 1179705, 7, 0, 1179706, 7, 0, 1179707, 7, 0, 1179708, 7, 0, 1179709, 7, 0, 1310718, 7, 0, 1310719, 7, 0, 1245184, 7, 0, 1245185, 2, 0, 1245186, 2, 0, 1245187, 2, 0, 1245188, 2, 0, 1245189, 2, 0, 1245190, 2, 0, 1245191, 2, 0, 1245192, 2, 0, 1245193, 2, 0, 1245194, 2, 0, 1245195, 2, 0, 1245196, 2, 0, 1245197, 2, 0, 1245198, 2, 0, 1245199, 2, 0, 1245200, 2, 0, 1245201, 2, 0, 1245202, 2, 0, 1245203, 2, 0, 1245204, 2, 0, 1245205, 2, 0, 1245206, 2, 0, 1245207, 2, 0, 1245208, 2, 0, 1245209, 2, 0, 1245210, 2, 0, 1245211, 2, 0, 1245212, 2, 0, 1245213, 2, 0, 1245214, 2, 0, 1245215, 2, 0, 1245216, 2, 0, 1245217, 2, 0, 1245218, 2, 0, 1245219, 2, 0, 1245220, 2, 0, 1245221, 2, 0, 1245222, 2, 0, 1245223, 2, 0, 1245224, 2, 0, 1245225, 2, 0, 1245226, 2, 0, 1245227, 2, 0, 1245228, 2, 0, 1245229, 2, 0, 1245230, 2, 0, 1245231, 2, 0, 1245232, 2, 0, 1245233, 2, 0, 1245234, 2, 0, 1245235, 2, 0, 1245236, 2, 0, 1245237, 7, 0, 1245238, 7, 0, 1245239, 1, 0, 1245240, 1, 0, 1245241, 7, 0, 1245242, 7, 0, 1245243, 7, 0, 1245244, 7, 0, 1245245, 7, 0, 1376254, 7, 0, 1376255, 7, 0, 1310720, 7, 0, 1310721, 7, 0, 1310722, 7, 0, 1310723, 7, 0, 1310724, 7, 0, 1310725, 7, 0, 1310726, 7, 0, 1310727, 7, 0, 1310728, 7, 0, 1310729, 7, 0, 1310730, 7, 0, 1310731, 7, 0, 1310732, 7, 0, 1310733, 7, 0, 1310734, 7, 0, 1310735, 7, 0, 1310736, 7, 0, 1310737, 7, 0, 1310738, 7, 0, 1310739, 7, 0, 1310740, 7, 0, 1310741, 7, 0, 1310742, 7, 0, 1310743, 7, 0, 1310744, 7, 0, 1310745, 7, 0, 1310746, 7, 0, 1310747, 7, 0, 1310748, 7, 0, 1310749, 7, 0, 1310750, 7, 0, 1310751, 7, 0, 1310752, 7, 0, 1310753, 7, 0, 1310754, 7, 0, 1310755, 7, 0, 1310756, 7, 0, 1310757, 7, 0, 1310758, 7, 0, 1310759, 7, 0, 1310760, 7, 0, 1310761, 7, 0, 1310762, 7, 0, 1310763, 7, 0, 1310764, 7, 0, 1310765, 7, 0, 1310766, 7, 0, 1310767, 7, 0, 1310768, 7, 0, 1310769, 7, 0, 1310770, 7, 0, 1310771, 7, 0, 1310772, 7, 0, 1310773, 7, 0, 1310774, 7, 0, 1310775, 7, 0, 1310776, 7, 0, 1310777, 7, 0, 1310778, 7, 0, 1310779, 7, 0, 1310780, 7, 0, 1310781, 7, 0, 1441790, 7, 0, 1441791, 7, 0, 1376256, 7, 0, 1376257, 7, 0, 1376258, 7, 0, 1376259, 7, 0, 1376260, 7, 0, 1376261, 7, 0, 1376262, 7, 0, 1376263, 7, 0, 1376264, 7, 0, 1376265, 7, 0, 1376266, 7, 0, 1376267, 7, 0, 1376268, 7, 0, 1376269, 7, 0, 1376270, 7, 0, 1376271, 7, 0, 1376272, 7, 0, 1376273, 7, 0, 1376274, 7, 0, 1376275, 7, 0, 1376276, 7, 0, 1376277, 7, 0, 1376278, 7, 0, 1376279, 7, 0, 1376280, 7, 0, 1376281, 7, 0, 1376282, 7, 0, 1376283, 7, 0, 1376284, 7, 0, 1376285, 7, 0, 1376286, 7, 0, 1376287, 7, 0, 1376288, 7, 0, 1376289, 7, 0, 1376290, 7, 0, 1376291, 7, 0, 1376292, 7, 0, 1376293, 7, 0, 1376294, 7, 0, 1376295, 7, 0, 1376296, 7, 0, 1376297, 7, 0, 1376298, 7, 0, 1376299, 7, 0, 1376300, 7, 0, 1376301, 7, 0, 1376302, 7, 0, 1376303, 7, 0, 1376304, 7, 0, 1376305, 7, 0, 1376306, 7, 0, 1376307, 7, 0, 1376308, 7, 0, 1376309, 7, 0, 1376310, 7, 0, 1376311, 7, 0, 1376312, 7, 0, 1376313, 7, 0, 1376314, 7, 0, 1376315, 7, 0, 1376316, 7, 0, 1376317, 7, 0, 1507326, 7, 0, 1507327, 7, 0, 1441792, 7, 0, 1441793, 7, 0, 1441794, 7, 0, 1441795, 7, 0, 1441796, 7, 0, 1441797, 7, 0, 1441798, 7, 0, 1441799, 7, 0, 1441800, 7, 0, 1441801, 7, 0, 1441802, 7, 0, 1441803, 7, 0, 1441804, 7, 0, 1441809, 7, 0, 1441810, 7, 0, 1441811, 7, 0, 1441812, 7, 0, 1441813, 7, 0, 1441814, 7, 0, 1441815, 7, 0, 1441816, 7, 0, 1441817, 7, 0, 1441818, 7, 0, 1441819, 7, 0, 1441820, 7, 0, 1441821, 7, 0, 1441822, 7, 0, 1441823, 7, 0, 1441824, 7, 0, 1441825, 7, 0, 1441826, 7, 0, 1441827, 7, 0, 1441828, 7, 0, 1441829, 7, 0, 1441830, 7, 0, 1441831, 7, 0, 1441832, 7, 0, 1441833, 7, 0, 1441834, 7, 0, 1441835, 7, 0, 1441836, 7, 0, 1441837, 7, 0, 1441838, 7, 0, 1441839, 7, 0, 1441840, 7, 0, 1441841, 7, 0, 1441842, 1, 0, 1441843, 7, 0, 1441844, 7, 0, 1441845, 7, 0, 1441846, 7, 0, 1441847, 7, 0, 1441848, 7, 0, 1441849, 1, 0, 1441850, 7, 0, 1441851, 7, 0, 1441852, 7, 0, 1441853, 7, 0, 1572862, 7, 0, 1572863, 7, 0, 1507328, 7, 0, 1507329, 7, 0, 1507330, 7, 0, 1507331, 7, 0, 1507332, 7, 0, 1507333, 7, 0, 1507334, 7, 0, 1507335, 7, 0, 1507336, 7, 0, 1507337, 1, 0, 1507338, 1, 0, 1507339, 7, 0, 1507340, 7, 0, 1507341, 7, 0, 1507342, 7, 0, 1507343, 7, 0, 1507344, 7, 0, 1507345, 7, 0, 1507346, 7, 0, 1507347, 7, 0, 1507348, 7, 0, 1507349, 7, 0, 1507350, 7, 0, 1507351, 7, 0, 1507352, 7, 0, 1507353, 7, 0, 1507354, 7, 0, 1507355, 7, 0, 1507356, 7, 0, 1507357, 7, 0, 1507358, 7, 0, 1507359, 7, 0, 1507360, 7, 0, 1507361, 7, 0, 1507362, 7, 0, 1507363, 7, 0, 1507364, 7, 0, 1507365, 7, 0, 1507366, 7, 0, 1507367, 7, 0, 1507368, 7, 0, 1507369, 7, 0, 1507370, 7, 0, 1507371, 7, 0, 1507372, 7, 0, 1507373, 7, 0, 1507374, 7, 0, 1507375, 7, 0, 1507376, 7, 0, 1507377, 1, 0, 1507378, 6, 0, 1507379, 1, 0, 1507380, 1, 0, 1507381, 7, 0, 1507382, 7, 0, 1507383, 7, 0, 1507384, 7, 0, 1507385, 6, 0, 1507386, 1, 0, 1507387, 7, 0, 1507388, 7, 0, 1507389, 7, 0, 1638398, 7, 0, 1638399, 7, 0, 1572864, 7, 0, 1572865, 7, 0, 1572866, 7, 0, 1572867, 7, 0, 1572868, 7, 0, 1572869, 7, 0, 1572870, 7, 0, 1572871, 7, 0, 1572872, 7, 0, 1572873, 7, 0, 1572874, 7, 0, 1572875, 7, 0, 1572876, 7, 0, 1572877, 7, 0, 1572878, 7, 0, 1572879, 7, 0, 1572880, 7, 0, 1572881, 7, 0, 1572882, 7, 0, 1572883, 7, 0, 1572884, 7, 0, 1572885, 7, 0, 1572886, 7, 0, 1572887, 7, 0, 1572888, 7, 0, 1572889, 7, 0, 1572890, 7, 0, 1572891, 7, 0, 1572892, 7, 0, 1572893, 7, 0, 1572894, 7, 0, 1572895, 7, 0, 1572896, 7, 0, 1572897, 7, 0, 1572898, 7, 0, 1572899, 7, 0, 1572900, 7, 0, 1572901, 7, 0, 1572902, 7, 0, 1572903, 7, 0, 1572904, 7, 0, 1572905, 7, 0, 1572906, 7, 0, 1572907, 7, 0, 1572908, 7, 0, 1572909, 7, 0, 1572910, 7, 0, 1572911, 7, 0, 1572912, 7, 0, 1572913, 7, 0, 1572914, 7, 0, 1572915, 7, 0, 1572916, 7, 0, 1572917, 7, 0, 1572918, 7, 0, 1572919, 7, 0, 1572920, 7, 0, 1572921, 7, 0, 1572922, 7, 0, 1572923, 7, 0, 1572924, 7, 0, 1572925, 7, 0, 1703934, 7, 0, 1703935, 7, 0, 1638400, 7, 0, 1638401, 7, 0, 1638402, 7, 0, 1638403, 1, 0, 1638404, 1, 0, 1638405, 6, 0, 1638406, 1, 0, 1638407, 7, 0, 1638408, 7, 0, 1638409, 7, 0, 1638410, 7, 0, 1638411, 7, 0, 1638412, 7, 0, 1638413, 7, 0, 1638414, 7, 0, 1638415, 7, 0, 1638416, 7, 0, 1638417, 7, 0, 1638418, 7, 0, 1638419, 7, 0, 1638420, 7, 0, 1638421, 7, 0, 1638422, 7, 0, 1638423, 7, 0, 1638424, 7, 0, 1638425, 7, 0, 1638426, 7, 0, 1638427, 7, 0, 1638428, 7, 0, 1638429, 7, 0, 1638430, 7, 0, 1638431, 7, 0, 1638432, 7, 0, 1638433, 7, 0, 1638434, 7, 0, 1638435, 7, 0, 1638436, 7, 0, 1638437, 7, 0, 1638438, 7, 0, 1638439, 7, 0, 1638440, 7, 0, 1638441, 7, 0, 1638442, 7, 0, 1638443, 7, 0, 1638444, 7, 0, 1638445, 7, 0, 1638446, 7, 0, 1638447, 7, 0, 1638448, 7, 0, 1638449, 7, 0, 1638450, 7, 0, 1638451, 7, 0, 1638452, 7, 0, 1638453, 7, 0, 1638454, 7, 0, 1638455, 7, 0, 1638456, 7, 0, 1638457, 7, 0, 1638458, 7, 0, 1638459, 7, 0, 1638460, 7, 0, 1638461, 7, 0, 1769470, 7, 0, 1769471, 7, 0, 1703936, 7, 0, 1703937, 7, 0, 1703938, 7, 0, 1703939, 7, 0, 1703940, 7, 0, 1703941, 7, 0, 1703942, 7, 0, 1703943, 7, 0, 1703944, 7, 0, 1703945, 7, 0, 1703946, 7, 0, 1703947, 7, 0, 1703948, 7, 0, 1703949, 7, 0, 1703950, 7, 0, 1703951, 7, 0, 1703952, 7, 0, 1703953, 7, 0, 1703954, 7, 0, 1703955, 7, 0, 1703956, 7, 0, 1703957, 7, 0, 1703958, 7, 0, 1703959, 7, 0, 1703960, 7, 0, 1703961, 7, 0, 1703962, 7, 0, 1703963, 7, 0, 1703964, 7, 0, 1703965, 7, 0, 1703966, 7, 0, 1703967, 7, 0, 1703968, 7, 0, 1703969, 7, 0, 1703970, 7, 0, 1703971, 7, 0, 1703972, 7, 0, 1703973, 7, 0, 1703974, 7, 0, 1703975, 7, 0, 1703976, 7, 0, 1703977, 7, 0, 1703978, 7, 0, 1703979, 7, 0, 1703980, 7, 0, 1703981, 7, 0, 1703982, 7, 0, 1703983, 7, 0, 1703984, 7, 0, 1703985, 7, 0, 1703986, 7, 0, 1703987, 7, 0, 1703988, 7, 0, 1703989, 7, 0, 1703990, 7, 0, 1703991, 7, 0, 1703992, 7, 0, 1703993, 7, 0, 1703994, 7, 0, 1703995, 7, 0, 1703996, 7, 0, 1703997, 7, 0, 1835006, 7, 0, 1835007, 7, 0, 1769472, 7, 0, 1769473, 7, 0, 1769474, 7, 0, 1769475, 7, 0, 1769476, 7, 0, 1769477, 7, 0, 1769478, 7, 0, 1769479, 7, 0, 1769480, 7, 0, 1769481, 7, 0, 1769482, 7, 0, 1769483, 7, 0, 1769484, 7, 0, 1769485, 7, 0, 1769486, 7, 0, 1769487, 7, 0, 1769488, 7, 0, 1769489, 7, 0, 1769490, 7, 0, 1769491, 7, 0, 1769492, 7, 0, 1769493, 7, 0, 1769494, 7, 0, 1769495, 7, 0, 1769496, 7, 0, 1769497, 7, 0, 1769498, 7, 0, 1769499, 7, 0, 1769500, 7, 0, 1769501, 7, 0, 1769502, 7, 0, 1769503, 7, 0, 1769504, 7, 0, 1769505, 7, 0, 1769506, 7, 0, 1769507, 7, 0, 1769508, 7, 0, 1769509, 7, 0, 1769510, 7, 0, 1769511, 7, 0, 1769512, 7, 0, 1769513, 7, 0, 1769514, 7, 0, 1769515, 7, 0, 1769516, 7, 0, 1769517, 7, 0, 1769518, 7, 0, 1769519, 7, 0, 1769520, 7, 0, 1769521, 7, 0, 1769522, 7, 0, 1769523, 7, 0, 1769524, 7, 0, 1769525, 1, 0, 1769526, 1, 0, 1769527, 1, 0, 1769528, 1, 0, 1769529, 7, 0, 1769530, 7, 0, 1769531, 7, 0, 1769532, 7, 0, 1769533, 7, 0, 1900542, 7, 0, 1900543, 7, 0, 1835008, 7, 0, 1835009, 7, 0, 1835010, 7, 0, 1835011, 7, 0, 1835012, 7, 0, 1835013, 7, 0, 1835014, 7, 0, 1835015, 7, 0, 1835016, 7, 0, 1835017, 7, 0, 1835018, 7, 0, 1835019, 7, 0, 1835020, 7, 0, 1835021, 7, 0, 1835022, 7, 0, 1835023, 7, 0, 1835024, 7, 0, 1835025, 7, 0, 1835026, 7, 0, 1835027, 7, 0, 1835028, 7, 0, 1835029, 7, 0, 1835030, 7, 0, 1835031, 7, 0, 1835032, 7, 0, 1835033, 7, 0, 1835034, 7, 0, 1835035, 7, 0, 1835036, 7, 0, 1835037, 7, 0, 1835038, 7, 0, 1835039, 7, 0, 1835040, 7, 0, 1835041, 7, 0, 1835042, 7, 0, 1835043, 7, 0, 1835044, 7, 0, 1835045, 7, 0, 1835046, 7, 0, 1835047, 7, 0, 1835048, 7, 0, 1835049, 7, 0, 1835050, 7, 0, 1835051, 7, 0, 1835052, 7, 0, 1835053, 7, 0, 1835054, 7, 0, 1835055, 7, 0, 1835056, 7, 0, 1835057, 7, 0, 1835058, 7, 0, 1835059, 7, 0, 1835060, 7, 0, 1835061, 7, 0, 1835062, 7, 0, 1835063, 7, 0, 1835064, 7, 0, 1835065, 7, 0, 1835066, 7, 0, 1835067, 7, 0, 1835068, 7, 0, 1835069, 7, 0, 1966078, 7, 0, 1966079, 1, 0, 1900544, 1, 0, 1900545, 1, 0, 1900546, 1, 0, 1900547, 7, 0, 1900548, 7, 0, 1900549, 7, 0, 1900550, 7, 0, 1900551, 7, 0, 1900552, 7, 0, 1900553, 7, 0, 1900554, 7, 0, 1900555, 7, 0, 1900556, 7, 0, 1900557, 7, 0, 1900558, 7, 0, 1900559, 7, 0, 1900560, 7, 0, 1900561, 7, 0, 1900562, 7, 0, 1900563, 7, 0, 1900564, 7, 0, 1900565, 7, 0, 1900566, 7, 0, 1900567, 7, 0, 1900568, 7, 0, 1900569, 7, 0, 1900570, 7, 0, 1900571, 7, 0, 1900572, 7, 0, 1900573, 7, 0, 1900574, 7, 0, 1900575, 7, 0, 1900576, 7, 0, 1900577, 7, 0, 1900578, 7, 0, 1900579, 7, 0, 1900580, 7, 0, 1900581, 7, 0, 1900582, 7, 0, 1900583, 7, 0, 1900584, 7, 0, 1900585, 7, 0, 1900586, 7, 0, 1900587, 7, 0, 1900588, 7, 0, 1900589, 7, 0, 1900590, 7, 0, 1900591, 7, 0, 1900592, 7, 0, 1900593, 7, 0, 1900594, 7, 0, 1900595, 7, 0, 1900596, 7, 0, 1900597, 7, 0, 1900598, 7, 0, 1900599, 7, 0, 1900600, 7, 0, 1900601, 7, 0, 1900602, 7, 0, 1900603, 7, 0, 1900604, 7, 0, 1900605, 7, 0, 2031614, 7, 0, 2031615, 7, 0, 1966080, 7, 0, 1966081, 7, 0, 1966082, 7, 0, 1966083, 7, 0, 1966084, 7, 0, 1966085, 7, 0, 1966086, 7, 0, 1966087, 7, 0, 1966088, 7, 0, 1966089, 2, 0, 1966090, 2, 0, 1966091, 2, 0, 1966092, 2, 0, 1966093, 2, 0, 1966094, 2, 0, 1966095, 2, 0, 1966096, 2, 0, 1966097, 2, 0, 1966098, 2, 0, 1966099, 2, 0, 1966100, 2, 0, 1966101, 2, 0, 1966102, 2, 0, 1966103, 2, 0, 1966104, 2, 0, 1966105, 2, 0, 1966106, 2, 0, 1966107, 2, 0, 1966108, 2, 0, 1966109, 2, 0, 1966110, 2, 0, 1966111, 2, 0, 1966112, 2, 0, 1966113, 2, 0, 1966114, 2, 0, 1966115, 2, 0, 1966116, 2, 0, 1966117, 2, 0, 1966118, 2, 0, 1966119, 2, 0, 1966120, 2, 0, 1966121, 2, 0, 1966122, 2, 0, 1966123, 2, 0, 1966124, 2, 0, 1966125, 2, 0, 1966126, 2, 0, 1966127, 2, 0, 1966128, 2, 0, 1966129, 2, 0, 1966130, 2, 0, 1966131, 2, 0, 1966132, 2, 0, 1966133, 7, 0, 1966134, 7, 0, 1966135, 7, 0, 1966136, 7, 0, 1966137, 7, 0, 1966138, 7, 0, 1966139, 7, 0, 1966140, 7, 0, 1966141, 7, 0, 2097150, 7, 0, 2097151, 7, 0, 2031616, 7, 0, 2031617, 7, 0, 2031618, 7, 0, 2031619, 7, 0, 2031620, 7, 0, 2031621, 7, 0, 2031622, 7, 0, 2031623, 7, 0, 2031624, 7, 0, 2031625, 7, 0, 2031626, 7, 0, 2031627, 7, 0, 2031628, 7, 0, 2031629, 7, 0, 2031630, 7, 0, 2031631, 7, 0, 2031632, 7, 0, 2031633, 7, 0, 2031634, 7, 0, 2031635, 7, 0, 2031636, 7, 0, 2031637, 7, 0, 2031638, 7, 0, 2031639, 7, 0, 2031640, 7, 0, 2031641, 7, 0, 2031642, 7, 0, 2031643, 7, 0, 2031644, 7, 0, 2031645, 7, 0, 2031646, 7, 0, 2031647, 7, 0, 2031648, 7, 0, 2031649, 7, 0, 2031650, 7, 0, 2031651, 7, 0, 2031652, 7, 0, 2031653, 7, 0, 2031654, 7, 0, 2031655, 7, 0, 2031656, 7, 0, 2031657, 7, 0, 2031658, 7, 0, 2031659, 7, 0, 2031660, 7, 0, 2031661, 7, 0, 2031662, 7, 0, 2031663, 7, 0, 2031664, 7, 0, 2031665, 7, 0, 2031666, 7, 0, 2031667, 7, 0, 2031668, 7, 0, 2031669, 7, 0, 2031670, 7, 0, 2031671, 7, 0, 2031672, 7, 0, 2031673, 7, 0, 2031674, 7, 0, 2031675, 7, 0, 2031676, 7, 0, 2031677, 7, 0, 2162686, 7, 0, 2162687, 7, 0, 2097152, 7, 0, 2097153, 7, 0, 2097154, 7, 0, 2097155, 7, 0, 2097156, 7, 0, 2097157, 7, 0, 2097158, 7, 0, 2097159, 7, 0, 2097160, 7, 0, 2097161, 7, 0, 2097162, 7, 0, 2097163, 7, 0, 2097164, 7, 0, 2097165, 7, 0, 2097166, 7, 0, 2097167, 7, 0, 2097168, 7, 0, 2097169, 7, 0, 2097170, 7, 0, 2097171, 7, 0, 2097172, 7, 0, 2097173, 7, 0, 2097174, 7, 0, 2097175, 7, 0, 2097176, 7, 0, 2097177, 7, 0, 2097178, 7, 0, 2097179, 7, 0, 2097180, 7, 0, 2097181, 7, 0, 2097182, 7, 0, 2097183, 7, 0, 2097184, 7, 0, 2097185, 7, 0, 2097186, 7, 0, 2097187, 7, 0, 2097188, 7, 0, 2097189, 7, 0, 2097190, 7, 0, 2097191, 7, 0, 2097192, 7, 0, 2097193, 7, 0, 2097194, 7, 0, 2097195, 7, 0, 2097196, 7, 0, 2097197, 7, 0, 2097198, 7, 0, 2097199, 7, 0, 2097200, 7, 0, 2097201, 7, 0, 2097202, 7, 0, 2097203, 7, 0, 2097204, 7, 0, 2097205, 7, 0, 2097206, 7, 0, 2097207, 7, 0, 2097208, 7, 0, 2097209, 7, 0, 2097210, 7, 0, 2097211, 7, 0, 2097212, 7, 0, 2097213, 7, 0, 2228222, 7, 0, 2228223, 7, 0, 2162688, 7, 0, 2162689, 7, 0, 2162690, 7, 0, 2162691, 7, 0, 2162692, 7, 0, 2162693, 7, 0, 2162694, 7, 0, 2162695, 7, 0, 2162696, 7, 0, 2162697, 7, 0, 2162698, 7, 0, 2162699, 7, 0, 2162700, 7, 0, 2162701, 7, 0, 2162702, 7, 0, 2162703, 7, 0, 2162704, 7, 0, 2162705, 7, 0, 2162706, 7, 0, 2162707, 7, 0, 2162708, 7, 0, 2162709, 7, 0, 2162710, 7, 0, 2162711, 7, 0, 2162712, 7, 0, 2162713, 7, 0, 2162714, 7, 0, 2162715, 7, 0, 2162716, 7, 0, 2162717, 7, 0, 2162718, 7, 0, 2162719, 7, 0, 2162720, 7, 0, 2162721, 7, 0, 2162722, 7, 0, 2162723, 7, 0, 2162724, 7, 0, 2162725, 7, 0, 2162726, 7, 0, 2162727, 7, 0, 2162728, 7, 0, 2162729, 7, 0, 2162730, 7, 0, 2162731, 7, 0, 2162732, 7, 0, 2162733, 7, 0, 2162734, 7, 0, 2162735, 7, 0, 2162736, 7, 0, 2162737, 7, 0, 2162738, 7, 0, 2162739, 7, 0, 2162740, 7, 0, 2162741, 7, 0, 2162742, 7, 0, 2162743, 7, 0, 2162744, 7, 0, 2162745, 7, 0, 2162746, 7, 0, 2162747, 7, 0, 2162748, 7, 0, 2162749, 7, 0, 2293758, 7, 0, 2293759, 7, 0, 2228224, 7, 0, 2228225, 7, 0, 2228226, 7, 0, 2228227, 7, 0, 2228228, 7, 0, 2228229, 7, 0, 2228230, 7, 0, 2228231, 7, 0, 2228232, 7, 0, 2228233, 7, 0, 2228234, 7, 0, 2228235, 7, 0, 2228236, 7, 0, 2228237, 7, 0, 2228238, 7, 0, 2228239, 7, 0, 2228240, 7, 0, 2228241, 7, 0, 2228242, 7, 0, 2228243, 7, 0, 2228244, 7, 0, 2228245, 7, 0, 2228246, 7, 0, 2228247, 7, 0, 2228248, 7, 0, 2228249, 7, 0, 2228250, 7, 0, 2228251, 7, 0, 2228252, 7, 0, 2228253, 7, 0, 2228254, 7, 0, 2228255, 7, 0, 2228256, 7, 0, 2228257, 7, 0, 2228258, 7, 0, 2228259, 7, 0, 2228260, 7, 0, 2228261, 7, 0, 2228262, 7, 0, 2228263, 7, 0, 2228264, 7, 0, 2228265, 7, 0, 2228266, 7, 0, 2228267, 7, 0, 2228268, 7, 0, 2228269, 7, 0, 2228270, 7, 0, 2228271, 7, 0, 2228272, 7, 0, 2228273, 7, 0, 2228274, 7, 0, 2228275, 7, 0, 2228276, 7, 0, 2228277, 7, 0, 2228278, 7, 0, 2228279, 7, 0, 2228280, 7, 0, 2228281, 7, 0, 2228282, 7, 0, 2228283, 7, 0, 2228284, 7, 0, 2228285, 7, 0 )

[node name="Door" parent="." instance=ExtResource( 4 )]
position = Vector2( 0, 80 )

[node name="Door2" parent="." instance=ExtResource( 4 )]
position = Vector2( 0, 480 )

[node name="RoomEntrance" parent="." instance=ExtResource( 5 )]
position = Vector2( 16, 112 )
path_door_to_open = NodePath("../../CorridorD/Door")

[node name="RoomEntrance2" parent="." instance=ExtResource( 5 )]
pause_mode = 1
position = Vector2( 16, 512 )
entrance_id = 1
path_door_to_open = NodePath("../../CorridorD/Door2")

[node name="RoomExit" parent="." instance=ExtResource( 6 )]
position = Vector2( -32, 96 )
destination_room = "maze"
destination_entrance_id = 1

[node name="RoomExit2" parent="." instance=ExtResource( 6 )]
position = Vector2( -32, 496 )
destination_room = "corridor_e"

[node name="Clawguy" parent="." instance=ExtResource( 7 )]
position = Vector2( 496, 32 )

[node name="Clawguy2" parent="." instance=ExtResource( 7 )]
position = Vector2( 288, 16 )

[node name="Clawguy5" parent="." instance=ExtResource( 7 )]
position = Vector2( 800, 32 )

[node name="Crawler2" parent="." instance=ExtResource( 8 )]
position = Vector2( 480, 304 )

[node name="Crawler3" parent="." instance=ExtResource( 8 )]
position = Vector2( 112, 336 )

[node name="Drone" parent="." instance=ExtResource( 9 )]
position = Vector2( 449.312, 340.445 )

[node name="Drone2" parent="." instance=ExtResource( 9 )]
position = Vector2( 64, 416 )

[node name="Drone3" parent="." instance=ExtResource( 9 )]
position = Vector2( 480, 128 )

[node name="CameraLimit" type="Position2D" parent="."]
pause_mode = 1
position = Vector2( 960, 528 )

[node name="Crawler" parent="." instance=ExtResource( 8 )]
position = Vector2( 656, 112 )

[node name="Camera2D" type="Camera2D" parent="."]
position = Vector2( 320, 180 )
anchor_mode = 0
zoom = Vector2( 0.25, 0.25 )

[node name="Clawguy3" parent="." instance=ExtResource( 7 )]
position = Vector2( 272, 192 )

[node name="Clawguy4" parent="." instance=ExtResource( 7 )]
position = Vector2( 688, 192 )

[node name="Savepad" parent="." instance=ExtResource( 10 )]
position = Vector2( 160, 144 )
